Library\Bee\artifacts\movedfrom\UnityEngine.UI.ref.dll_7786851116020915807.movedfrom
Library\Bee\artifacts\movedfrom\UnityEngine.AccessibilityModule.dll_2650709976343471810.movedfrom
Library\Bee\artifacts\movedfrom\UnityEngine.AIModule.dll_577473968134155800.movedfrom
Library\Bee\artifacts\movedfrom\UnityEngine.AndroidJNIModule.dll_12020743699021021142.movedfrom
Library\Bee\artifacts\movedfrom\UnityEngine.AnimationModule.dll_5935448967572341992.movedfrom
Library\Bee\artifacts\movedfrom\UnityEngine.AssetBundleModule.dll_9752741388698585366.movedfrom
Library\Bee\artifacts\movedfrom\UnityEngine.AudioModule.dll_10462390639870716890.movedfrom
Library\Bee\artifacts\movedfrom\UnityEngine.ClothModule.dll_17877669658807143102.movedfrom
Library\Bee\artifacts\movedfrom\UnityEngine.CoreModule.dll_1638720203601406831.movedfrom
Library\Bee\artifacts\movedfrom\UnityEngine.CrashReportingModule.dll_1497158271353846375.movedfrom
Library\Bee\artifacts\movedfrom\UnityEngine.DirectorModule.dll_10378468337506000204.movedfrom
Library\Bee\artifacts\movedfrom\UnityEngine.dll_477984416919798518.movedfrom
Library\Bee\artifacts\movedfrom\UnityEngine.DSPGraphModule.dll_10761662886327610989.movedfrom
Library\Bee\artifacts\movedfrom\UnityEngine.GameCenterModule.dll_15068917700676464839.movedfrom
Library\Bee\artifacts\movedfrom\UnityEngine.GIModule.dll_11547197083297175090.movedfrom
Library\Bee\artifacts\movedfrom\UnityEngine.GridModule.dll_17595285867776147814.movedfrom
Library\Bee\artifacts\movedfrom\UnityEngine.HotReloadModule.dll_15251353729149886570.movedfrom
Library\Bee\artifacts\movedfrom\UnityEngine.ImageConversionModule.dll_7221698370368168501.movedfrom
Library\Bee\artifacts\movedfrom\UnityEngine.IMGUIModule.dll_14524531292542812091.movedfrom
Library\Bee\artifacts\movedfrom\UnityEngine.InputLegacyModule.dll_1773800042093788935.movedfrom
Library\Bee\artifacts\movedfrom\UnityEngine.InputModule.dll_17845417364726075518.movedfrom
Library\Bee\artifacts\movedfrom\UnityEngine.JSONSerializeModule.dll_9574863819227055948.movedfrom
Library\Bee\artifacts\movedfrom\UnityEngine.LocalizationModule.dll_10163006737125873337.movedfrom
Library\Bee\artifacts\movedfrom\UnityEngine.ParticleSystemModule.dll_7483085718695642613.movedfrom
Library\Bee\artifacts\movedfrom\UnityEngine.PerformanceReportingModule.dll_10606781646484778798.movedfrom
Library\Bee\artifacts\movedfrom\UnityEngine.Physics2DModule.dll_11458533302384245885.movedfrom
Library\Bee\artifacts\movedfrom\UnityEngine.PhysicsModule.dll_9563539138897688043.movedfrom
Library\Bee\artifacts\movedfrom\UnityEngine.ProfilerModule.dll_14001114194435941465.movedfrom
Library\Bee\artifacts\movedfrom\UnityEngine.RuntimeInitializeOnLoadManagerInitializerModule.dll_8312412402386642758.movedfrom
Library\Bee\artifacts\movedfrom\UnityEngine.ScreenCaptureModule.dll_11441515176880305070.movedfrom
Library\Bee\artifacts\movedfrom\UnityEngine.SharedInternalsModule.dll_16738154944527195525.movedfrom
Library\Bee\artifacts\movedfrom\UnityEngine.SpriteMaskModule.dll_13424103900141209153.movedfrom
Library\Bee\artifacts\movedfrom\UnityEngine.SpriteShapeModule.dll_11581534180005331232.movedfrom
Library\Bee\artifacts\movedfrom\UnityEngine.StreamingModule.dll_500991046430456870.movedfrom
Library\Bee\artifacts\movedfrom\UnityEngine.SubstanceModule.dll_16401816260821023284.movedfrom
Library\Bee\artifacts\movedfrom\UnityEngine.SubsystemsModule.dll_2664272535681642068.movedfrom
Library\Bee\artifacts\movedfrom\UnityEngine.TerrainModule.dll_11456875548216196825.movedfrom
Library\Bee\artifacts\movedfrom\UnityEngine.TerrainPhysicsModule.dll_7517611290469728386.movedfrom
Library\Bee\artifacts\movedfrom\UnityEngine.TextCoreModule.dll_2937065907374886236.movedfrom
Library\Bee\artifacts\movedfrom\UnityEngine.TextRenderingModule.dll_14413734846317228963.movedfrom
Library\Bee\artifacts\movedfrom\UnityEngine.TilemapModule.dll_4466276830777040866.movedfrom
Library\Bee\artifacts\movedfrom\UnityEngine.TLSModule.dll_15886570090862285823.movedfrom
Library\Bee\artifacts\movedfrom\UnityEngine.UIElementsModule.dll_2970061459747138123.movedfrom
Library\Bee\artifacts\movedfrom\UnityEngine.UIElementsNativeModule.dll_3721219756098564290.movedfrom
Library\Bee\artifacts\movedfrom\UnityEngine.UIModule.dll_249729537925116868.movedfrom
Library\Bee\artifacts\movedfrom\UnityEngine.UmbraModule.dll_866534955298346829.movedfrom
Library\Bee\artifacts\movedfrom\UnityEngine.UNETModule.dll_12205932846618632424.movedfrom
Library\Bee\artifacts\movedfrom\UnityEngine.UnityAnalyticsModule.dll_9761749666647398385.movedfrom
Library\Bee\artifacts\movedfrom\UnityEngine.UnityConnectModule.dll_13583003186893836709.movedfrom
Library\Bee\artifacts\movedfrom\UnityEngine.UnityCurlModule.dll_9618444796560389845.movedfrom
Library\Bee\artifacts\movedfrom\UnityEngine.UnityTestProtocolModule.dll_4155783111438906819.movedfrom
Library\Bee\artifacts\movedfrom\UnityEngine.UnityWebRequestAssetBundleModule.dll_6073531667426412418.movedfrom
Library\Bee\artifacts\movedfrom\UnityEngine.UnityWebRequestAudioModule.dll_805915172622727622.movedfrom
Library\Bee\artifacts\movedfrom\UnityEngine.UnityWebRequestModule.dll_8491440417219574964.movedfrom
Library\Bee\artifacts\movedfrom\UnityEngine.UnityWebRequestTextureModule.dll_6679632082585953371.movedfrom
Library\Bee\artifacts\movedfrom\UnityEngine.UnityWebRequestWWWModule.dll_5175627114786220439.movedfrom
Library\Bee\artifacts\movedfrom\UnityEngine.VehiclesModule.dll_561458425697463527.movedfrom
Library\Bee\artifacts\movedfrom\UnityEngine.VFXModule.dll_6725853100648594796.movedfrom
Library\Bee\artifacts\movedfrom\UnityEngine.VideoModule.dll_13131200488130201471.movedfrom
Library\Bee\artifacts\movedfrom\UnityEngine.VRModule.dll_6217604349530306876.movedfrom
Library\Bee\artifacts\movedfrom\UnityEngine.WebGLModule.dll_3503332022723788189.movedfrom
Library\Bee\artifacts\movedfrom\UnityEngine.WindModule.dll_10163712315541776856.movedfrom
Library\Bee\artifacts\movedfrom\UnityEngine.XRModule.dll_9874178721251313306.movedfrom
Library\Bee\artifacts\movedfrom\Unity.VisualScripting.Antlr3.Runtime.dll_14637112007697619822.movedfrom