-a="D:\UNITY Projects\Tank Game\Library\PlayerScriptAssemblies\Assembly-CSharp.dll"
-a="D:\UNITY Projects\Tank Game\Library\PlayerScriptAssemblies\Unity.RenderPipelines.Universal.Shaders.dll"
-a="D:\UNITY Projects\Tank Game\Library\PlayerScriptAssemblies\Unity.RenderPipelines.Universal.Runtime.dll"
-a="D:\UNITY Projects\Tank Game\Library\PlayerScriptAssemblies\UnityEngine.TestRunner.dll"
-a="D:\UNITY Projects\Tank Game\Library\PlayerScriptAssemblies\Unity.Timeline.dll"
-a="D:\UNITY Projects\Tank Game\Library\PlayerScriptAssemblies\Unity.TextMeshPro.dll"
-a="D:\UNITY Projects\Tank Game\Library\PlayerScriptAssemblies\Unity.RenderPipelines.Core.Runtime.dll"
-a="D:\UNITY Projects\Tank Game\Library\PlayerScriptAssemblies\Unity.RenderPipelines.Core.ShaderLibrary.dll"
-a="D:\UNITY Projects\Tank Game\Library\PlayerScriptAssemblies\Unity.VisualScripting.Flow.dll"
-a="D:\UNITY Projects\Tank Game\Library\PlayerScriptAssemblies\UnityEngine.UI.dll"
-a="D:\UNITY Projects\Tank Game\Library\PlayerScriptAssemblies\Unity.VisualScripting.Core.dll"
-a="D:\UNITY Projects\Tank Game\Library\PlayerScriptAssemblies\Unity.Mathematics.dll"
-a="D:\UNITY Projects\Tank Game\Library\PlayerScriptAssemblies\Unity.Postprocessing.Runtime.dll"
-a="D:\UNITY Projects\Tank Game\Library\PlayerScriptAssemblies\Unity.RenderPipeline.Universal.ShaderLibrary.dll"
-a="D:\UNITY Projects\Tank Game\Library\PlayerScriptAssemblies\Unity.RenderPipelines.ShaderGraph.ShaderGraphLibrary.dll"
-a="D:\UNITY Projects\Tank Game\Library\PlayerScriptAssemblies\Unity.VisualScripting.State.dll"
-a="D:\UNITY Projects\Tank Game\Library\PackageCache\com.unity.nuget.newtonsoft-json@2.0.0\Runtime\AOT\Newtonsoft.Json.dll"
-a="D:\UNITY Projects\Tank Game\Library\PackageCache\com.unity.nuget.newtonsoft-json@2.0.0\Runtime\Portable\Newtonsoft.Json.dll"
-a="D:\UNITY Projects\Tank Game\Library\PackageCache\com.unity.visualscripting@1.6.1\Runtime\VisualScripting.Flow\Dependencies\NCalc\Unity.VisualScripting.Antlr3.Runtime.dll"
-a="D:\UNITY Projects\Tank Game\Library\PackageCache\com.unity.nuget.newtonsoft-json@2.0.0\Runtime\Newtonsoft.Json.dll"
-a="D:\UNITY Projects\Tank Game\Library\PackageCache\com.unity.ext.nunit@1.0.6\net35\unity-custom\nunit.framework.dll"
-s="C:\Program Files\Unity\Hub\Editor\2021.1.13f1\Editor\Data\Managed\UnityEngine"
-s="C:\Program Files\Unity\Hub\Editor\2021.1.13f1\Editor\Data\PlaybackEngines\WebGLSupport\Managed"
-s="D:\UNITY Projects\Tank Game\Library\PlayerScriptAssemblies"
-s="D:\UNITY Projects\Tank Game\Library\PackageCache\com.unity.nuget.newtonsoft-json@2.0.0\Runtime\AOT"
-s="D:\UNITY Projects\Tank Game\Library\PackageCache\com.unity.nuget.newtonsoft-json@2.0.0\Runtime\Portable"
-s="D:\UNITY Projects\Tank Game\Library\PackageCache\com.unity.visualscripting@1.6.1\Runtime\VisualScripting.Flow\Dependencies\NCalc"
-s="D:\UNITY Projects\Tank Game\Library\PackageCache\com.unity.nuget.newtonsoft-json@2.0.0\Runtime"
-s="D:\UNITY Projects\Tank Game\Library\PackageCache\com.unity.ext.nunit@1.0.6\net35\unity-custom"
-s="C:\Program Files\Unity\Hub\Editor\2021.1.13f1\Editor\Data\Managed\UnityEngine"
-s="C:\Program Files\Unity\Hub\Editor\2021.1.13f1\Editor\Data\PlaybackEngines\WebGLSupport\Managed"
-s="C:\Program Files\Unity\Hub\Editor\2021.1.13f1\Editor\Data\NetStandard\ref\2.0.0"
-s="C:\Program Files\Unity\Hub\Editor\2021.1.13f1\Editor\Data\NetStandard\compat\2.0.0\shims\netstandard"
-s="C:\Program Files\Unity\Hub\Editor\2021.1.13f1\Editor\Data\NetStandard\Extensions\2.0.0"
-s="C:\Program Files\Unity\Hub\Editor\2021.1.13f1\Editor\Data\NetStandard\compat\2.0.0\shims\netfx"
-o="D:\UNITY Projects\Tank Game\Library\BuildPlayerData\Player"
-rn="RuntimeInitializeOnLoads.json"
-tn="TypeDb-All.json"
